<svg width="443" height="115" viewBox="0 0 443 115" class="css-1j8o68f">
   <defs id="SvgjsDefs4126"></defs>
   <g id="SvgjsG4127" featurekey="rootContainer" transform="matrix(1,0,0,1,0,0)" fill="#111111">
      <rect
         xmlns="http://www.w3.org/2000/svg" width="443" height="115" rx="10" ry="10">
      </rect>
   </g>
   <g id="SvgjsG4128" featurekey="nameLeftFeature-0" transform="matrix(2.4999999006589295,0,0,2.4999999006589295,16.999999403953577,25.50000009934107)" fill="#ffffff">
      <path d="M10.06 8.66 l-5.86 0 l0 3.06 l4.82 0 l0 2.5 l-4.82 0 l0 5.78 l-3 0 l0 -14 l8.86 0 l0 2.66 z M18.52 5.800000000000001 c3.9 0 7.26 2.94 7.26 7.2 s-3.36 7.2 -7.26 7.2 s-7.26 -2.94 -7.26 -7.2 s3.36 -7.2 7.26 -7.2 z M18.52 17.46 c2.36 0 4.22 -1.86 4.22 -4.46 s-1.86 -4.46 -4.22 -4.46 s-4.22 1.86 -4.22 4.46 s1.86 4.46 4.22 4.46 z M40.28 20 l-3.44 0 l-3.02 -4.5 l-3 4.5 l-3.44 0 l4.7 -7.08 l-4.64 -6.92 l3.44 0 l2.92 4.34 l2.88 -4.34 l3.44 0 l-4.6 6.92 z M46.88 6 c3.14 0 5.18 1.9 5.18 4.76 c0 2.82 -2.04 4.58 -5.18 4.58 l-1.98 0 l0 4.66 l-2.92 0 l0 -14 l4.9 0 z M46.7 12.82 c1.44 0 2.44 -0.56 2.44 -2.06 c0 -1.48 -1 -2.08 -2.44 -2.08 l-1.8 0 l0 4.14 l1.8 0 z M64.98 20 l-3.1 0 l-2.98 -4.66 l-0.04 0 l-1.98 0 l0 4.66 l-2.92 0 l0 -14 l4.9 0 c3.14 0 5.18 1.9 5.18 4.76 c0 1.9 -0.92 3.32 -2.48 4.04 z M56.88 8.68 l0 4.14 l1.8 0 c1.44 0 2.44 -0.56 2.44 -2.06 c0 -1.48 -1 -2.08 -2.44 -2.08 l-1.8 0 z M73.74000000000001 5.800000000000001 c3.9 0 7.26 2.94 7.26 7.2 s-3.36 7.2 -7.26 7.2 s-7.26 -2.94 -7.26 -7.2 s3.36 -7.2 7.26 -7.2 z M73.74000000000001 17.46 c2.36 0 4.22 -1.86 4.22 -4.46 s-1.86 -4.46 -4.22 -4.46 s-4.22 1.86 -4.22 4.46 s1.86 4.46 4.22 4.46 z"></path>
   </g>
   <g id="SvgjsG4129" featurekey="inlineSymbolFeature-0" transform="matrix(0.3918941618174832,0,0,0.3918941618174832,240,20.06011168398426)" fill="#ffffff">
      <defs
         xmlns="http://www.w3.org/2000/svg">
      </defs>
      <g
         xmlns="http://www.w3.org/2000/svg">
         <path class="fil0" d="M60 26c12,-6 20,-12 32,-18 -17,-3 -34,-7 -53,-6 4,10 11,18 21,24z" style="fill: #ffffff;"></path>
         <path class="fil0" d="M51 107c-2,2 -4,6 -9,7 7,-14 0,-32 6,-48 -15,0 -29,-9 -43,-23 18,-7 37,-12 55,-14 15,-8 28,-19 43,-21 4,0 23,0 35,9 15,11 44,-9 60,-14 11,-5 16,-5 22,7 -1,4 3,16 -1,19 -1,1 0,4 -1,5 -1,1 -4,-1 -4,-1 -1,1 -1,4 -1,4 -1,1 -3,-1 -4,0 -2,0 -2,3 -3,4 10,-2 15,-5 17,-4 4,5 -4,16 -4,17 -2,1 -3,-4 -5,-3 -2,1 -4,5 -7,9 -3,-11 -37,12 -40,15 -14,11 12,39 7,67 -3,-12 -8,-19 -12,-18 1,25 -15,48 -36,66 41,-45 20,-109 16,-121 -1,-4 -6,-22 14,-30 -33,-7 -35,17 -50,18 -12,1 -29,16 -29,16 6,-2 11,-4 17,-7 -11,14 -15,29 -17,45 3,-9 7,-17 14,-25 -3,12 -1,22 4,31 1,-9 -2,-28 8,-27 55,12 -17,120 -103,67 26,-1 55,-12 51,-50zm-33 -60c9,9 19,10 28,10 -2,-3 -5,-3 -8,-6 3,0 8,-2 11,-3 -3,-1 -8,-2 -11,-3 5,-2 10,-6 15,-7 -11,0 -24,4 -35,9zm92 -16c1,-1 6,-4 11,-6 2,2 4,5 6,5 2,-3 1,-7 1,-7 3,2 4,2 6,5 0,0 -10,4 -11,4 -2,0 -13,-1 -13,-1z" style="fill: #ffffff;"></path>
      </g>
   </g>
   <g id="SvgjsG4130" featurekey="nameRightFeature-0" transform="matrix(2.500000066227385,0,0,2.500000066227385,330,25.49999675485814)" fill="#ffffff">
      <path d="M7.78 6 l0 14 l-0.58 0 l0 -14 l0.58 0 z M20.44 6 l0.58 0 l0 14 l-0.44 0 l-9.82 -12.9 l0 12.9 l-0.58 0 l0 -14 l0.44 0 l9.82 12.94 l0 -12.94 z M34.8 18.5 c-1.3 1.08 -2.9 1.7 -4.62 1.7 c-3.44 0 -7.06 -2.98 -7.06 -7.2 s3.62 -7.2 7.06 -7.2 c1.7 0 3.28 0.6 4.58 1.66 l-0.4 0.46 c-1.18 -1 -2.64 -1.52 -4.12 -1.52 c-3.16 0 -6.54 2.68 -6.54 6.6 s3.38 6.6 6.54 6.6 c1.48 0 2.96 -0.52 4.12 -1.5 z M36.62 20.1 c-0.44 0 -0.42 0.02 -0.42 -0.42 s-0.02 -0.42 0.42 -0.42 s0.42 -0.02 0.42 0.42 s0.02 0.42 -0.42 0.42 z"></path>
   </g>
</svg>