<svg width="8" height="717" viewBox="0 0 8 717" fill="none" xmlns="http://www.w3.org/2000/svg">
<path fill-rule="evenodd" clip-rule="evenodd" d="M2.37308 716.174L2.37305 1.95898L6.37305 1.95898L6.37308 716.174L2.37308 716.174Z" fill="#0057FF"/>
<path d="M7.84961 3.68178C7.84961 5.61916 6.28261 7.18972 4.34961 7.18972C2.41661 7.18972 0.849609 5.61916 0.849609 3.68178C0.849609 1.74439 2.41661 0.173828 4.34961 0.173828C6.28261 0.173828 7.84961 1.74439 7.84961 3.68178Z" fill="#0057FF"/>
</svg>
